classes= 2
train  = /content/helmet-detector/data/train.txt
#valid  = coco_testdev
valid = /content/helmet-detector/data/test.txt
names = /content/helmet-detector/data/helmet-detector.names
backup = backup